spotify
…
raw_data |> 
  summarize(across(everything(), function(x) sum(is.na(x))))

# A tibble: 1 × 15
   ...1 title artist `top genre`  year   bpm  nrgy  dnce    dB  live   val   dur
  <int> <int>  <int>       <int> <int> <int> <int> <int> <int> <int> <int> <int>
1     0     0      0           0     0     0     0     0     0     0     0     0
# ℹ 3 more variables: acous <int>, spch <int>, pop <int>

There are no missing values. Lets look for values that were incorrectly inserted. Generally we can use the View() function to have a quick look at what the largest and smallest values are for certain columns. For example nrgy, dnce, live etc. seem to be only be able to take values in the range 0-100. dB takes only negative values, and bpm and dur are positive values which can go much higher than 100.

raw_data |> 
  filter(if_any(c(nrgy, dnce, live, val, acous, spch, pop), ~ . <= 1 | . >= 99))

# A tibble: 150 × 15
    ...1 title      artist `top genre`  year   bpm  nrgy  dnce    dB  live   val
   <dbl> <chr>      <chr>  <chr>       <dbl> <dbl> <dbl> <dbl> <dbl> <dbl> <dbl>
 1     4 Bad Roman… Lady … dance pop    2010   119    92    70    -4     8    71
 2     7 Dynamite   Taio … dance pop    2010   120    78    75    -4     4    82
 3    14 Telephone  Lady … dance pop    2010   122    83    83    -6    11    71
 4    15 Like A G6  Far E… dance pop    2010   125    84    44    -8    12    78
 5    19 Alejandro  Lady … dance pop    2010    99    80    63    -7    36    37
 6    20 Your Love… Kesha  dance pop    2010   120    61    83    -4     9    76
 7    21 Meet Me H… The B… dance pop    2010   130    63    80    -7    32    40
 8    22 Whataya W… Adam … australian…  2010   186    68    44    -5     6    45
 9    23 Take It O… Kesha  dance pop    2010   125    68    73    -5     9    74
10    24 Misery     Maroo… pop          2010   103    81    70    -5    22    73
# ℹ 140 more rows
# ℹ 4 more variables: dur <dbl>, acous <dbl>, spch <dbl>, pop <dbl>
…
Question 2

ytg_pop_data <- data |> 
  group_by(year, top_genre) |> 
  summarize(
    avg_pop = mean(pop),
    n = n(),
    .groups = "drop"
    ) |> 
  relocate(year, top_genre, avg_pop, n)

ytg_pop_data

# A tibble: 147 × 4
   year  top_genre       avg_pop     n
   <chr> <chr>             <dbl> <int>
 1 2010  art pop            58       1
 2 2010  atl hip hop        57.7     3
 3 2010  australian pop     62.5     2
 4 2010  barbadian pop      65       2
 5 2010  big room            0       1
 6 2010  canadian pop       77       1
 7 2010  colombian pop      56       1
 8 2010  dance pop          65.1    31
 9 2010  detroit hip hop    82       1
10 2010  hip pop            65       3
# ℹ 137 more rows
…
